module inbs-mock

go 1.22

require (
	github.com/google/uuid v1.6.0
	google.golang.org/grpc v1.63.2
	google.golang.org/protobuf v1.33.0
)

require (
	golang.org/x/net v0.23.0 // indirect
	golang.org/x/sys v0.18.0 // indirect
	golang.org/x/text v0.14.0 // indirect
	google.golang.org/genproto/googleapis/rpc v0.0.0-20240227224415-6ceb2ff114de // indirect
)
